lp_lab3/codici/saiftest/inccomp.vcd
$date
	Mon Apr 22 18:46:41 2024
$end
$version
	QuestaSim Version 2020.4
$end
$timescale
	1ps
$end

$scope module tbinccomp $end

$scope module DUT $end
$var wire 1 ! C [7] $end
$var wire 1 " C [6] $end
$var wire 1 # C [5] $end
$var wire 1 $ C [4] $end
$var wire 1 % C [3] $end
$var wire 1 & C [2] $end
$var wire 1 ' C [1] $end
$var wire 1 ( C [0] $end
$var wire 1 ) ck $end
$var wire 1 * rst $end
$var wire 1 + INCA $end
$var wire 1 , INCB $end
$var wire 1 - N8 $end
$var wire 1 . N9 $end
$var wire 1 / N10 $end
$var wire 1 0 N11 $end
$var wire 1 1 N12 $end
$var wire 1 2 N13 $end
$var wire 1 3 N14 $end
$var wire 1 4 N15 $end
$var wire 1 5 N33 $end
$var wire 1 6 N34 $end
$var wire 1 7 N35 $end
$var wire 1 8 N36 $end
$var wire 1 9 N37 $end
$var wire 1 : N38 $end
$var wire 1 ; N39 $end
$var wire 1 < N40 $end
$var wire 1 = lt_gt_47_B_0_ $end
$var wire 1 > lt_gt_47_B_1_ $end
$var wire 1 ? lt_gt_47_B_2_ $end
$var wire 1 @ lt_gt_47_B_3_ $end
$var wire 1 A lt_gt_47_B_4_ $end
$var wire 1 B lt_gt_47_B_5_ $end
$var wire 1 C lt_gt_47_B_6_ $end
$var wire 1 D lt_gt_47_B_7_ $end
$var wire 1 E lt_gt_47_A_0_ $end
$var wire 1 F lt_gt_47_A_1_ $end
$var wire 1 G lt_gt_47_A_2_ $end
$var wire 1 H lt_gt_47_A_3_ $end
$var wire 1 I lt_gt_47_A_4_ $end
$var wire 1 J lt_gt_47_A_5_ $end
$var wire 1 K lt_gt_47_A_6_ $end
$var wire 1 L lt_gt_47_A_7_ $end
$var wire 1 M n63 $end
$var wire 1 N n64 $end
$var wire 1 O n65 $end
$var wire 1 P n66 $end
$var wire 1 Q n67 $end
$var wire 1 R n68 $end
$var wire 1 S n69 $end
$var wire 1 T n70 $end
$var wire 1 U n71 $end
$var wire 1 V n72 $end
$var wire 1 W n73 $end
$var wire 1 X n74 $end
$var wire 1 Y n75 $end
$var wire 1 Z n76 $end
$var wire 1 [ n77 $end
$var wire 1 \ n78 $end
$var wire 1 ] n79 $end
$var wire 1 ^ n80 $end
$var wire 1 _ n81 $end
$var wire 1 ` n82 $end
$var wire 1 a n83 $end
$var wire 1 b n84 $end
$var wire 1 c n85 $end
$var wire 1 d n86 $end
$var wire 1 e n87 $end
$var wire 1 f n88 $end
$var wire 1 g n89 $end
$var wire 1 h n90 $end
$var wire 1 i n91 $end
$var wire 1 j n92 $end
$var wire 1 k n93 $end
$var wire 1 l n94 $end
$var wire 1 m syncha [7] $end
$var wire 1 n syncha [6] $end
$var wire 1 o syncha [5] $end
$var wire 1 p syncha [4] $end
$var wire 1 q syncha [3] $end
$var wire 1 r syncha [2] $end
$var wire 1 s syncha [1] $end
$var wire 1 t syncha [0] $end
$var wire 1 u synchb [7] $end
$var wire 1 v synchb [6] $end
$var wire 1 w synchb [5] $end
$var wire 1 x synchb [4] $end
$var wire 1 y synchb [3] $end
$var wire 1 z synchb [2] $end
$var wire 1 { synchb [1] $end
$var wire 1 | synchb [0] $end
$var wire 1 } r73_carry [7] $end
$var wire 1 ~ r73_carry [6] $end
$var wire 1 !! r73_carry [5] $end
$var wire 1 "! r73_carry [4] $end
$var wire 1 #! r73_carry [3] $end
$var wire 1 $! r73_carry [2] $end
$var wire 1 %! r72_carry [7] $end
$var wire 1 &! r72_carry [6] $end
$var wire 1 '! r72_carry [5] $end
$var wire 1 (! r72_carry [4] $end
$var wire 1 )! r72_carry [3] $end
$var wire 1 *! r72_carry [2] $end
$upscope $end
$upscope $end
$enddefinitions $end
#0
$dumpvars
x(
x'
x&
x%
x$
x#
x"
x!
x-
x.
x/
x0
x1
x2
x3
x4
x5
x6
x7
x8
x9
x:
x;
x<
x=
x>
x?
x@
xA
xB
xC
xD
xE
xF
xG
xH
xI
xJ
xK
xL
xM
xN
xO
xP
xQ
xR
xS
xT
xU
xV
xW
xX
xY
xZ
x[
x\
x]
x^
x_
x`
xa
xb
xc
xd
xe
xf
xg
xh
xi
xj
xk
xl
xt
xs
xr
xq
xp
xo
xn
xm
x|
x{
xz
xy
xx
xw
xv
xu
x$!
x#!
x"!
x!!
x~
x}
x*!
x)!
x(!
x'!
x&!
x%!
0,
0+
1*
1)
$end
#86
0d
#172
0(
0!
0"
0#
0$
0%
0&
0'
#181
0m
0u
#182
0s
0r
0q
0p
0o
0n
0{
0z
0y
0x
0w
0v
#186
0t
0|
#214
15
1-
#236
0}
0%!
#238
0~
0!!
0"!
0#!
0$!
0&!
0'!
0(!
0)!
0*!
#255
0D
#256
0F
0>
#258
0E
#259
0L
#260
0K
0J
0I
0H
0G
0C
0B
0A
0@
0?
#266
0=
#270
06
0.
#290
1N
#291
1a
#292
1^
1]
1X
1W
1S
1`
1[
1Z
1U
1Q
#300
04
0<
#315
0/
00
01
02
03
07
08
09
0:
0;
#316
1c
#325
0k
#330
0j
0i
0h
0f
0e
#331
0g
#336
0l
#339
0b
#371
1_
#422
0\
#460
1Y
#511
0V
#547
1T
#580
0R
#614
1P
#637
0O
#779
1M
#2500
0)
#5000
1)
#7000
0*
#7158
1d
#7500
0)
#10000
1)
#12000
1+
#12067
1=
#12102
0c
#12127
1b
#12162
0_
#12199
1\
#12250
0Y
#12288
1V
#12325
0T
#12357
1R
#12403
0P
#12432
1O
#12477
0M
#12500
0)
#12561
1l
#15000
1)
#15118
1(
#15135
1t
#15159
0-
#15210
1.
#15235
0=
#15265
1>
#15305
0l
#15312
1k
#17500
0)
#20000
1)
#20104
0(
#20116
0t
#20118
1'
#20130
1s
#20144
1-
#20201
1=
#20250
1l
#22500
0)
#25000
1)
#25118
1(
#25135
1t
#25159
0-
#25180
0.
#25204
1*!
#25235
0=
#25254
0>
#25271
1/
#25305
0l
#25312
1c
#25323
0k
#25332
1?
#25335
0b
#25359
0^
#25367
1_
#25381
1j
#27500
0)
#28000
1,
#28056
1E
#30000
1)
#30104
0(
0'
#30113
0s
#30116
0t
#30118
1&
#30130
1r
#30135
1|
#30144
1-
#30159
05
#30169
0*!
#30170
0/
#30201
1=
#30210
16
#30220
1/
#30226
0E
#30236
0c
#30250
1l
#30261
1b
#30266
1F
#30290
0_
#30295
0a
#30335
1c
#30358
0b
#30390
1_
#32500
0)
#35000
1)
#35116
0|
#35118
1(
#35130
1{
#35135
1t
#35144
15
#35159
0-
#35190
1E
#35210
1.
#35235
0=
#35265
1>
#35295
0c
#35305
0l
#35312
1k
#35320
1b
#37500
0)
#40000
1)
#40104
0(
#40116
0t
#40118
1'
#40130
1s
#40135
1|
#40144
1-
#40159
05
#40180
06
#40201
1=
#40204
1$!
#40226
0E
#40238
0_
#40250
1l
#40254
0F
#40271
17
#40289
1a
#40332
1G
#40359
0`
#42500
0)
#45000
1)
#45113
0{
#45116
0|
#45118
1(
#45130
1z
#45135
1t
#45144
15
#45159
0-
#45169
0$!
#45170
07
#45180
0.
#45190
1E
#45204
1*!
#45220
17
#45235
0=
#45242
0/
#45254
0>
#45265
1)!
#45305
0l
#45312
1c
#45320
0?
#45323
0k
#45332
10
#45335
0b
#45352
1^
#45382
1_
#45390
0j
#45393
1@
#45420
0]
#45427
0\
#45442
1i
#45466
1Y
#45482
1\
#45517
0V
#45527
0Y
#45553
1T
#45565
1V
#45586
0R
#45602
0T
#45620
1P
#45634
1R
#45643
0O
#45680
0P
#45709
1O
#47500
0)
#50000
0+
1)
#50076
1>
#50078
0@
#50082
1=
1?
#50104
0(
0'
0&
#50105
0c
#50109
0^
#50110
1]
#50113
0s
0r
#50116
0t
#50118
1%
#50123
1k
#50130
1b
1q
#50131
1j
1l
#50135
1|
#50144
1-
#50148
0i
#50150
0\
#50159
05
#50161
1/
#50162
0_
#50169
0)!
0*!
#50170
00
#50187
0>
#50188
1Y
#50191
0?
#50192
1@
#50196
0=
#50199
1\
#50210
16
#50219
0]
#50220
10
#50223
1^
#50226
0E
#50239
0V
#50241
1i
#50244
0Y
#50246
1c
0/
#50255
1_
#50256
0k
#50261
0j
#50266
1F
0l
#50269
0b
#50275
1T
#50282
1V
#50295
0a
#50308
0R
#50319
0T
#50342
1P
#50351
1R
#50365
0O
#50397
0P
#50426
1O
#52500
0)
#55000
1)
#55116
0|
#55130
1{
#55144
15
#55190
1E
#57500
0)
#60000
1)
#60135
1|
#60159
05
#60180
06
#60204
1$!
#60226
0E
#60242
07
#60254
0F
#60265
1#!
#60289
1a
#60320
0G
#60332
18
#60352
1`
#60393
1H
#60420
0[
#60441
0\
#60479
1Y
#60530
0V
#60566
1T
#60599
0R
#60633
1P
#60656
0O
#60798
1M
#62500
0)
#65000
1)
#65113
0{
0z
#65116
0|
#65130
1y
#65144
15
#65161
17
#65169
0#!
0$!
#65170
08
#65190
1E
#65220
18
#65222
1G
#65234
1l
#65246
07
#65249
0`
#65271
1j
#65324
0G
#65356
1`
#65395
0j
#67500
0)
#70000
1)
#70118
1(
#70135
1|
#70159
05
#70210
16
#70226
0E
#70266
1F
#70293
0l
#70295
0a
#70313
1k
#72500
0)
#75000
1)
#75104
0(
#75116
0|
#75118
1'
#75130
1{
#75144
15
#75190
1E
#75234
1l
#77500
0)
#80000
1)
#80118
1(
#80135
1|
#80159
05
#80180
06
#80204
1$!
#80226
0E
#80254
0F
#80271
17
#80289
1a
#80293
0l
#80323
0k
#80332
1G
#80359
0`
#80381
1j
#82500
0)
#85000
1)
#85104
0(
0'
#85113
0{
#85116
0|
#85118
1&
#85130
1z
#85144
15
#85169
0$!
#85170
07
#85190
1E
#85220
17
#85234
1l
#87500
0)
#90000
1)
#90118
1(
#90135
1|
#90159
05
#90210
16
#90226
0E
#90266
1F
#90293
0l
#90295
0a
#90313
1k
#92500
0)
#95000
1)
#95104
0(
#95116
0|
#95118
1'
#95130
1{
#95144
15
#95190
1E
#95234
1l
#97500
0)
#100000
1)
#100118
1(
#100135
1|
#100159
05
#100180
06
#100204
1$!
#100226
0E
#100242
07
#100254
0F
#100265
1#!
#100289
1a
#100293
0l
#100303
08
#100320
0G
#100323
0k
#100326
1"!
#100352
1`
#100381
0H
#100391
0j
#100393
19
#100413
1[
#100443
1\
#100452
0i
#100454
1I
#100481
0Z
#100488
0Y
#100503
1h
#100527
1V
#100543
1Y
#100564
0T
#100588
0V
#100596
1R
#100624
1T
#100642
0P
#100657
0R
#100671
1O
#100691
1P
#100714
0O
#100716
0M
#100798
0h
#100800
1i
#100856
1M
#100930
1h
#100944
0i
#102500
0)
#105000
1)
#105104
0(
0'
0&
0%
#105113
0{
0z
0y
#105116
0|
#105118
1$
#105130
1x
#105144
15
#105161
18
17
#105169
0"!
0#!
0$!
#105170
09
#105190
1E
#105220
19
#105222
1G
1H
#105234
1l
#105246
07
08
#105249
0[
0`
#105264
0\
#105271
1i
1j
#105324
0H
0G
#105356
1`
1[
#105386
1\
#105395
0j
0i
#107500
0)
#110000
1)
#110118
1(
#110135
1|
#110159
05
#110210
16
#110226
0E
#110266
1F
#110293
0l
#110295
0a
#110313
1k
#112500
0)
#115000
1)
#115104
0(
#115116
0|
#115118
1'
#115130
1{
#115144
15
#115190
1E
#115234
1l
#117500
0)
#120000
1)
#120118
1(
#120135
1|
#120159
05
#120180
06
#120204
1$!
#120226
0E
#120254
0F
#120271
17
#120289
1a
#120293
0l
#120323
0k
#120332
1G
#120359
0`
#120381
1j
#122500
0)
#125000
1)
#125104
0(
0'
#125113
0{
#125116
0|
#125118
1&
#125130
1z
#125144
15
#125169
0$!
#125170
07
#125190
1E
#125220
17
#125234
1l
#127500
0)
#130000
1)
#130118
1(
#130135
1|
#130159
05
#130210
16
#130226
0E
#130266
1F
#130293
0l
#130295
0a
#130313
1k
#132500
0)
#135000
1)
#135104
0(
#135116
0|
#135118
1'
#135130
1{
#135144
15
#135190
1E
#135234
1l
#137500
0)
#140000
1)
#140118
1(
#140135
1|
#140159
05
#140180
06
#140204
1$!
#140226
0E
#140242
07
#140254
0F
#140265
1#!
#140289
1a
#140293
0l
#140320
0G
#140323
0k
#140332
18
#140352
1`
#140391
0j
#140393
1H
#140420
0[
#140441
0\
#140442
1i
#142500
0)
#145000
1)
#145104
0(
0'
0&
#145113
0{
0z
#145116
0|
#145118
1%
#145130
1y
#145144
15
#145161
17
#145169
0#!
0$!
#145170
08
#145190
1E
#145220
18
#145222
1G
#145234
1l
#145246
07
#145249
0`
#145271
1j
#145324
0G
#145356
1`
#145395
0j
#147500
0)
#150000
1)
#150118
1(
#150135
1|
#150159
05
#150210
16
#150226
0E
#150266
1F
#150293
0l
#150295
0a
#150313
1k
#152500
0)
#155000
1)
#155104
0(
#155116
0|
#155118
1'
#155130
1{
#155144
15
#155190
1E
#155234
1l
#157500
0)
#160000
1)
#160118
1(
#160135
1|
#160159
05
#160180
06
#160204
1$!
#160226
0E
#160254
0F
#160271
17
#160289
1a
#160293
0l
#160323
0k
#160332
1G
#160359
0`
#160381
1j
#162500
0)
#165000
1)
#165104
0(
0'
#165113
0{
#165116
0|
#165118
1&
#165130
1z
#165144
15
#165169
0$!
#165170
07
#165190
1E
#165220
17
#165234
1l
#167500
0)
#170000
1)
#170118
1(
#170135
1|
#170159
05
#170210
16
#170226
0E
#170266
1F
#170293
0l
#170295
0a
#170313
1k
#172500
0)
#175000
1)
#175104
0(
#175116
0|
#175118
1'
#175130
1{
#175144
15
#175190
1E
#175234
1l
#177500
0)
#180000
1)
#180118
1(
#180135
1|
#180159
05
#180180
06
#180204
1$!
#180226
0E
#180242
07
#180254
0F
#180265
1#!
#180289
1a
#180293
0l
#180303
08
#180320
0G
#180323
0k
#180326
1"!
#180352
1`
#180364
09
#180381
0H
#180387
1!!
#180391
0j
#180413
1[
#180442
0I
#180443
1\
#180452
0i
#180454
1:
#180474
1Z
#180511
0Y
#180513
0h
#180515
1J
#180542
0U
#180549
1V
#180564
1g
#182500
0)
#185000
1)
#185104
0(
0'
0&
0%
0$
#185113
0{
0z
0y
0x
#185116
0|
#185118
1#
#185130
1w
#185144
15
#185161
19
18
17
#185169
0!!
0"!
0#!
0$!
#185170
0:
#185190
1E
#185220
1:
#185222
1G
1H
1I
#185234
1l
#185246
07
08
09
#185249
0Z
0[
0`
#185264
0\
#185271
1h
1i
1j
#185309
1Y
#185324
0I
0H
0G
#185346
0V
#185356
1`
1[
1Z
#185386
1\
#185395
0j
0i
0h
#185431
0Y
#185469
1V
#187500
0)
#190000
1)
#190118
1(
#190135
1|
#190159
05
#190210
16
#190226
0E
#190266
1F
#190293
0l
#190295
0a
#190313
1k
#192500
0)
#195000
1)
#195104
0(
#195116
0|
#195118
1'
#195130
1{
#195144
15
#195190
1E
#195234
1l
#197500
0)
#200000
1)
#200118
1(
#200135
1|
#200159
05
#200180
06
#200204
1$!
#200226
0E
#200254
0F
#200271
17
#200289
1a
#200293
0l
#200323
0k
#200332
1G
#200359
0`
#200381
1j
#202500
0)
#205000
1)
#205104
0(
0'
#205113
0{
#205116
0|
#205118
1&
#205130
1z
#205144
15
#205169
0$!
#205170
07
#205190
1E
#205220
17
#205234
1l
#207500
0)
#210000
1)
#210118
1(
#210135
1|
#210159
05
#210210
16
#210226
0E
#210266
1F
#210293
0l
#210295
0a
#210313
1k
#212500
0)
#215000
1)
#215104
0(
#215116
0|
#215118
1'
#215130
1{
#215144
15
#215190
1E
#215234
1l
#217500
0)
#220000
1)
#220118
1(
#220135
1|
#220159
05
#220180
06
#220204
1$!
#220226
0E
#220242
07
#220254
0F
#220265
1#!
#220289
1a
#220293
0l
#220320
0G
#220323
0k
#220332
18
#220352
1`
#220391
0j
#220393
1H
#220420
0[
#220441
0\
#220442
1i
#220479
1Y
#220521
0V
#222500
0)
#225000
1)
#225104
0(
0'
0&
#225113
0{
0z
#225116
0|
#225118
1%
#225130
1y
#225144
15
#225161
17
#225169
0#!
0$!
#225170
08
#225190
1E
#225220
18
#225222
1G
#225234
1l
#225246
07
#225249
0`
#225271
1j
#225324
0G
#225356
1`
#225395
0j
#227500
0)
#230000
1)
#230118
1(
#230135
1|
#230159
05
#230210
16
#230226
0E
#230266
1F
#230293
0l
#230295
0a
#230313
1k
#232500
0)
#235000
1)
#235104
0(
#235116
0|
#235118
1'
#235130
1{
#235144
15
#235190
1E
#235234
1l
#237500
0)
#240000
1)
#240118
1(
#240135
1|
#240159
05
#240180
06
#240204
1$!
#240226
0E
#240254
0F
#240271
17
#240289
1a
#240293
0l
#240323
0k
#240332
1G
#240359
0`
#240381
1j
#242500
0)
#245000
1)
#245104
0(
0'
#245113
0{
#245116
0|
#245118
1&
#245130
1z
#245144
15
#245169
0$!
#245170
07
#245190
1E
#245220
17
#245234
1l
#247500
0)
#250000
1)
#250118
1(
#250135
1|
#250159
05
#250210
16
#250226
0E
#250266
1F
#250293
0l
#250295
0a
#250313
1k
#252500
0)
#255000
1)
#255104
0(
#255116
0|
#255118
1'
#255130
1{
#255144
15
#255190
1E
#255234
1l
#257500
0)
#260000
1)
#260118
1(
#260135
1|
#260159
05
#260180
06
#260204
1$!
#260226
0E
#260242
07
#260254
0F
#260265
1#!
#260289
1a
#260293
0l
#260303
08
#260320
0G
#260323
0k
#260326
1"!
#260352
1`
#260381
0H
#260391
0j
#260393
19
#260413
1[
#260443
1\
#260452
0i
#260454
1I
#260481
0Z
#260488
0Y
#260503
1h
#260526
1V
#260543
1Y
#260580
0V
#262500
0)
#265000
1)
#265104
0(
0'
0&
0%
#265113
0{
0z
0y
#265116
0|
#265118
1$
#265130
1x
#265144
15
#265161
18
17
#265169
0"!
0#!
0$!
#265170
09
#265190
1E
#265220
19
#265222
1G
1H
#265234
1l
#265246
07
08
#265249
0[
0`
#265264
0\
#265271
1i
1j
#265324
0H
0G
#265356
1`
1[
#265386
1\
#265395
0j
0i
#267500
0)
#270000
1)
#270118
1(
#270135
1|
#270159
05
#270210
16
#270226
0E
#270266
1F
#270293
0l
#270295
0a
#270313
1k
#272500
0)
#275000
1)
#275104
0(
#275116
0|
#275118
1'
#275130
1{
#275144
15
#275190
1E
#275234
1l
#277500
0)
#280000
1)
#280118
1(
#280135
1|
#280159
05
#280180
06
#280204
1$!
#280226
0E
#280254
0F
#280271
17
#280289
1a
#280293
0l
#280323
0k
#280332
1G
#280359
0`
#280381
1j
#282500
0)
#285000
1)
#285104
0(
0'
#285113
0{
#285116
0|
#285118
1&
#285130
1z
#285144
15
#285169
0$!
#285170
07
#285190
1E
#285220
17
#285234
1l
#287500
0)
#290000
1)
#290118
1(
#290135
1|
#290159
05
#290210
16
#290226
0E
#290266
1F
#290293
0l
#290295
0a
#290313
1k
#292500
0)
#295000
1)
#295104
0(
#295116
0|
#295118
1'
#295130
1{
#295144
15
#295190
1E
#295234
1l
#297500
0)
#300000
1)
#300118
1(
#300135
1|
#300159
05
#300180
06
#300204
1$!
#300226
0E
#300242
07
#300254
0F
#300265
1#!
#300289
1a
#300293
0l
#300320
0G
#300323
0k
#300332
18
#300352
1`
#300391
0j
#300393
1H
#300420
0[
#300441
0\
#300442
1i
#302500
0)
#305000
1)
#305104
0(
0'
0&
#305113
0{
0z
#305116
0|
#305118
1%
#305130
1y
#305144
15
#305161
17
#305169
0#!
0$!
#305170
08
#305190
1E
#305220
18
#305222
1G
#305234
1l
#305246
07
#305249
0`
#305271
1j
#305324
0G
#305356
1`
#305395
0j
#307500
0)
#310000
1)
#310118
1(
#310135
1|
#310159
05
#310210
16
#310226
0E
#310266
1F
#310293
0l
#310295
0a
#310313
1k
#312500
0)
#315000
1)
#315104
0(
#315116
0|
#315118
1'
#315130
1{
#315144
15
#315190
1E
#315234
1l
#317500
0)
#320000
1)
#320118
1(
#320135
1|
#320159
05
#320180
06
#320204
1$!
#320226
0E
#320254
0F
#320271
17
#320289
1a
#320293
0l
#320323
0k
#320332
1G
#320359
0`
#320381
1j
#322500
0)
#325000
1)
#325104
0(
0'
#325113
0{
#325116
0|
#325118
1&
#325130
1z
#325144
15
#325169
0$!
#325170
07
#325190
1E
#325220
17
#325234
1l
#327500
0)
#330000
1)
#330118
1(
#330135
1|
#330159
05
#330210
16
#330226
0E
#330266
1F
#330293
0l
#330295
0a
#330313
1k
#332500
0)
#335000
1)
#335104
0(
#335116
0|
#335118
1'
#335130
1{
#335144
15
#335190
1E
#335234
1l
#337500
0)
#340000
1)
#340118
1(
#340135
1|
#340159
05
#340180
06
#340204
1$!
#340226
0E
#340242
07
#340254
0F
#340265
1#!
#340289
1a
#340293
0l
#340303
08
#340320
0G
#340323
0k
#340326
1"!
#340352
1`
#340364
09
#340381
0H
#340387
1!!
#340391
0j
#340413
1[
#340425
0:
#340442
0I
#340443
1\
#340448
1~
#340452
0i
#340474
1Z
#340503
0J
#340511
0Y
#340513
0h
#340515
1;
#340535
1U
#340549
1V
#340574
0g
#340576
1K
#340586
0T
#340603
0Q
#340619
1R
#340625
1f
#342500
0)
#345000
1)
#345104
0(
0'
0&
0%
0$
0#
#345113
0{
0z
0y
0x
0w
#345116
0|
#345118
1"
#345130
1v
#345144
15
#345161
1:
19
18
17
#345169
0~
0!!
0"!
0#!
0$!
#345170
0;
#345190
1}
1E
#345220
1;
#345222
1G
1H
1I
1J
#345224
0}
#345234
1l
#345246
07
08
09
0:
#345249
0U
0Z
0[
0`
#345264
0\
#345271
1g
1h
1i
1j
#345293
1T
#345309
1Y
#345322
0R
#345324
0J
0I
0H
0G
#345346
0V
#345356
1`
1[
1Z
1U
#345386
1\
#345395
0j
0i
0h
0g
#345431
0Y
#345469
1V
#345506
0T
#345539
1R
#347500
0)
#350000
1)
#350118
1(
#350135
1|
#350159
05
#350210
16
#350226
0E
#350266
1F
#350293
0l
#350295
0a
#350313
1k
#352500
0)
#355000
1)
#355104
0(
#355116
0|
#355118
1'
#355130
1{
#355144
15
#355190
1E
#355234
1l
#357500
0)
#360000
1)
#360118
1(
#360135
1|
#360159
05
#360180
06
#360204
1$!
#360226
0E
#360254
0F
#360271
17
#360289
1a
#360293
0l
#360323
0k
#360332
1G
#360359
0`
#360381
1j
#362500
0)
#365000
1)
#365104
0(
0'
#365113
0{
#365116
0|
#365118
1&
#365130
1z
#365144
15
#365169
0$!
#365170
07
#365190
1E
#365220
17
#365234
1l
#367500
0)
#370000
1)
#370118
1(
#370135
1|
#370159
05
#370210
16
#370226
0E
#370266
1F
#370293
0l
#370295
0a
#370313
1k
#372500
0)
#375000
1)
#375104
0(
#375116
0|
#375118
1'
#375130
1{
#375144
15
#375190
1E
#375234
1l
#377500
0)
#380000
1)
#380118
1(
#380135
1|
#380159
05
#380180
06
#380204
1$!
#380226
0E
#380242
07
#380254
0F
#380265
1#!
#380289
1a
#380293
0l
#380320
0G
#380323
0k
#380332
18
#380352
1`
#380391
0j
#380393
1H
#380420
0[
#380441
0\
#380442
1i
#380479
1Y
#380530
0V
#380566
1T
#380595
0R
#382500
0)
#385000
1)
#385104
0(
0'
0&
#385113
0{
0z
#385116
0|
#385118
1%
#385130
1y
#385144
15
#385161
17
#385169
0#!
0$!
#385170
08
#385190
1E
#385220
18
#385222
1G
#385234
1l
#385246
07
#385249
0`
#385271
1j
#385324
0G
#385356
1`
#385395
0j
#387500
0)
#390000
1)
#390118
1(
#390135
1|
#390159
05
#390210
16
#390226
0E
#390266
1F
#390293
0l
#390295
0a
#390313
1k
#392500
0)
#395000
1)
#395104
0(
#395116
0|
#395118
1'
#395130
1{
#395144
15
#395190
1E
#395234
1l
#397500
0)
#400000
1)
#400118
1(
#400135
1|
#400159
05
#400180
06
#400204
1$!
#400226
0E
#400254
0F
#400271
17
#400289
1a
#400293
0l
#400323
0k
#400332
1G
#400359
0`
#400381
1j
#402500
0)
#405000
1)
#405104
0(
0'
#405113
0{
#405116
0|
#405118
1&
#405130
1z
#405144
15
#405169
0$!
#405170
07
#405190
1E
#405220
17
#405234
1l
#407500
0)
#410000
1)
#410118
1(
#410135
1|
#410159
05
#410210
16
#410226
0E
#410266
1F
#410293
0l
#410295
0a
#410313
1k
#412500
0)
#415000
1)
#415104
0(
#415116
0|
#415118
1'
#415130
1{
#415144
15
#415190
1E
#415234
1l
#417500
0)
#420000
1)
#420118
1(
#420135
1|
#420159
05
#420180
06
#420204
1$!
#420226
0E
#420242
07
#420254
0F
#420265
1#!
#420289
1a
#420293
0l
#420303
08
#420320
0G
#420323
0k
#420326
1"!
#420352
1`
#420381
0H
#420391
0j
#420393
19
#420413
1[
#420443
1\
#420452
0i
#420454
1I
#420481
0Z
#420488
0Y
#420503
1h
#420527
1V
#420543
1Y
#420564
0T
#420588
0V
#420597
1R
#420624
1T
#420653
0R
#422500
0)
#425000
1)
#425104
0(
0'
0&
0%
#425113
0{
0z
0y
#425116
0|
#425118
1$
#425130
1x
#425144
15
#425161
18
17
#425169
0"!
0#!
0$!
#425170
09
#425190
1E
#425220
19
#425222
1G
1H
#425234
1l
#425246
07
08
#425249
0[
0`
#425264
0\
#425271
1i
1j
#425324
0H
0G
#425356
1`
1[
#425386
1\
#425395
0j
0i
#427500
0)
#430000
1)
#430118
1(
#430135
1|
#430159
05
#430210
16
#430226
0E
#430266
1F
#430293
0l
#430295
0a
#430313
1k
#432500
0)
#435000
1)
#435104
0(
#435116
0|
#435118
1'
#435130
1{
#435144
15
#435190
1E
#435234
1l
#437500
0)
#440000
1)
#440118
1(
#440135
1|
#440159
05
#440180
06
#440204
1$!
#440226
0E
#440254
0F
#440271
17
#440289
1a
#440293
0l
#440323
0k
#440332
1G
#440359
0`
#440381
1j
#442500
0)
#445000
1)
#445104
0(
0'
#445113
0{
#445116
0|
#445118
1&
#445130
1z
#445144
15
#445169
0$!
#445170
07
#445190
1E
#445220
17
#445234
1l
#447500
0)
#450000
1)
#450118
1(
#450135
1|
#450159
05
#450210
16
#450226
0E
#450266
1F
#450293
0l
#450295
0a
#450313
1k
#452500
0)
#455000
1)
#455104
0(
#455116
0|
#455118
1'
#455130
1{
#455144
15
#455190
1E
#455234
1l
#457500
0)
#460000
1)
#460118
1(
#460135
1|
#460159
05
#460180
06
#460204
1$!
#460226
0E
#460242
07
#460254
0F
#460265
1#!
#460289
1a
#460293
0l
#460320
0G
#460323
0k
#460332
18
#460352
1`
#460391
0j
#460393
1H
#460420
0[
#460441
0\
#460442
1i
#462500
0)
#465000
1)
#465104
0(
0'
0&
#465113
0{
0z
#465116
0|
#465118
1%
#465130
1y
#465144
15
#465161
17
#465169
0#!
0$!
#465170
08
#465190
1E
#465220
18
#465222
1G
#465234
1l
#465246
07
#465249
0`
#465271
1j
#465324
0G
#465356
1`
#465395
0j
#467500
0)
#470000
1)
#470118
1(
#470135
1|
#470159
05
#470210
16
#470226
0E
#470266
1F
#470293
0l
#470295
0a
#470313
1k
#472500
0)
#475000
1)
#475104
0(
#475116
0|
#475118
1'
#475130
1{
#475144
15
#475190
1E
#475234
1l
#477500
0)
#480000
1)
#480118
1(
#480135
1|
#480159
05
#480180
06
#480204
1$!
#480226
0E
#480254
0F
#480271
17
#480289
1a
#480293
0l
#480323
0k
#480332
1G
#480359
0`
#480381
1j
#482500
0)
#485000
1)
#485104
0(
0'
#485113
0{
#485116
0|
#485118
1&
#485130
1z
#485144
15
#485169
0$!
#485170
07
#485190
1E
#485220
17
#485234
1l
#487500
0)
#490000
1)
#490118
1(
#490135
1|
#490159
05
#490210
16
#490226
0E
#490266
1F
#490293
0l
#490295
0a
#490313
1k
#492500
0)
#495000
1)
#495104
0(
#495116
0|
#495118
1'
#495130
1{
#495144
15
#495190
1E
#495234
1l
#497500
0)
#500000
1)
#500118
1(
#500135
1|
#500159
05
#500180
06
#500204
1$!
#500226
0E
#500242
07
#500254
0F
#500265
1#!
#500289
1a
#500293
0l
#500303
08
#500320
0G
#500323
0k
#500326
1"!
#500352
1`
#500364
09
#500381
0H
#500387
1!!
#500391
0j
#500413
1[
#500442
0I
#500443
1\
#500452
0i
#500454
1:
#500474
1Z
#500511
0Y
#500513
0h
#500515
1J
#500542
0U
#500549
1V
#500564
1g
#502500
0)
#505000
1)
#505104
0(
0'
0&
0%
0$
#505113
0{
0z
0y
0x
#505116
0|
#505118
1#
#505130
1w
#505144
15
#505161
19
18
17
#505169
0!!
0"!
0#!
0$!
#505170
0:
#505190
1E
#505220
1:
#505222
1G
1H
1I
#505234
1l
#505246
07
08
09
#505249
0Z
0[
0`
#505264
0\
#505271
1h
1i
1j
#505309
1Y
#505324
0I
0H
0G
#505346
0V
#505356
1`
1[
1Z
#505386
1\
#505395
0j
0i
0h
#505431
0Y
#505469
1V
#507500
0)
#510000
1)
#510118
1(
#510135
1|
#510159
05
#510210
16
#510226
0E
#510266
1F
#510293
0l
#510295
0a
#510313
1k
#512500
0)
#515000
1)
#515104
0(
#515116
0|
#515118
1'
#515130
1{
#515144
15
#515190
1E
#515234
1l
#517500
0)
#520000
1)
#520118
1(
#520135
1|
#520159
05
#520180
06
#520204
1$!
#520226
0E
#520254
0F
#520271
17
#520289
1a
#520293
0l
#520323
0k
#520332
1G
#520359
0`
#520381
1j
#522500
0)
#525000
1)
#525104
0(
0'
#525113
0{
#525116
0|
#525118
1&
#525130
1z
#525144
15
#525169
0$!
#525170
07
#525190
1E
#525220
17
#525234
1l
#527500
0)
#530000
1)
#530118
1(
#530135
1|
#530159
05
#530210
16
#530226
0E
#530266
1F
#530293
0l
#530295
0a
#530313
1k
#532500
0)
#535000
1)
#535104
0(
#535116
0|
#535118
1'
#535130
1{
#535144
15
#535190
1E
#535234
1l
#537500
0)
#540000
1)
#540118
1(
#540135
1|
#540159
05
#540180
06
#540204
1$!
#540226
0E
#540242
07
#540254
0F
#540265
1#!
#540289
1a
#540293
0l
#540320
0G
#540323
0k
#540332
18
#540352
1`
